{
    "KPackageStructure": "KWin/Script",
    "KPlugin": {
        "Authors": [
            {
                "Email": "mart@kde.org",
                "Name": "Marco Martin"
            }
        ],
        "Description": "When maximizing windows, put them to the nearest tile",
        "Icon": "preferences-system-windows-script-test",
        "Id": "maximizetotile",
        "License": "GPL",
        "Name": "Tile maximized windows",
        "Version": "1.0"
    },
    "X-KDE-ConfigModule": "kwin/effects/configs/kcm_kwin4_genericscripted",
    "X-KDE-PluginKeyword": "maximizetotile",
    "X-Plasma-API": "javascript",
    "X-Plasma-API-Minimum-Version": "6.0",
    "X-Plasma-MainScript": "code/main.js"
}
